<?xml version="1.0" encoding="utf-8"?>
<!-- Based on Dual Ring (spinner) https://loading.io/ -->
<svg xmlns="http://www.w3.org/2000/svg"
     xmlns:xlink="http://www.w3.org/1999/xlink"
     width="64px" height="64px" viewBox="0 0 100 100" preserveAspectRatio="xMidYMid"
     style="margin: auto;
            background: rgba(0, 0, 0, 0) none repeat scroll 0% 0%;
            display: block;
            shape-rendering: auto;">

    <circle cx="50" cy="50" r="32" stroke-width="12" stroke="#613583" stroke-dasharray="50 50"
            fill="none" stroke-linecap="round">
        <animateTransform attributeName="transform" type="rotate" repeatCount="indefinite"
                          dur="1s" keyTimes="0;1" values="0 50 50;360 50 50"></animateTransform>
    </circle>
</svg>
