{
    "name": "alimentos",
    "type": "STATISTICS",
    "questions": [
        {
            "text": "¿Cuál de estos alimentos sueles consumir?",
            "type": "MULTIPLE",
            "choices": [
                {"text": "Verduras"},
                {"text": "Frutas"},
                {"text": "Carne"},
                {"text": "Pescado y marisco"},
                {"text": "Productos lácteos"},
                {"text": "Semillas y frutos secos"},
                {"text": "Aceites y grasas"},
                {"text": "Cereales"},
                {"text": "Tubérculos y Legumbres"}
            ]
        },
        {
            "text": "¿Cuál de estos alimentos elegirías hoy?",
            "type": "SINGLE",
            "choices": [
                {"text": "Verduras"},
                {"text": "Frutas"},
                {"text": "Carne"},
                {"text": "Pescado y marisco"},
                {"text": "Productos lácteos"},
                {"text": "Semillas y frutos secos"},
                {"text": "Aceites y grasas"},
                {"text": "Cereales"},
                {"text": "Tubérculos y Legumbres"}
            ]
        },
        {
            "text": "¿Qué alimentos no te gustan?",
            "type": "MULTIPLE",
            "choices": [
                {"text": "Verduras"},
                {"text": "Frutas"},
                {"text": "Carne"},
                {"text": "Pescado y marisco"},
                {"text": "Productos lácteos"},
                {"text": "Semillas y frutos secos"},
                {"text": "Aceites y grasas"},
                {"text": "Cereales"},
                {"text": "Tubérculos y Legumbres"}
            ]
        }
    ]
}
