{
    "name": "medio ambiente",
    "type": "EVALUATION",
    "questions": [
        {
            "text": "Con los desechos de una industria ¿qué se debería realizar?",
            "type": "SINGLE",
            "choices": [
                {"text": "Verterlos a los rios, ya que estos tienen una capacidad purificadora"},
                {"text": "Tratarlo en planta y luego disponerlos de forma adecuada"},
                {"text": "Llamar a la policia, ellos sabrán que hacer"}
            ],
            "correctChoices": [
                {"text": "Tratarlo en planta y luego disponerlos de forma adecuada"}
            ]
        },
        {
            "text": "¿Cuáles de estas energías son consideradas limpias?",
            "type": "MULTIPLE",
            "choices": [
                {"text": "Gasolina"},
                {"text": "Fotovoltaica"},
                {"text": "Eólica"},
                {"text": "Plantas de carbón"},
                {"text": "Diesel"}
            ],
            "correctChoices": [
                {"text": "Fotovoltaica"},
                {"text": "Eólica"}
            ]
        }
    ]
}
